<?xml version="1.0" encoding="utf-8"?>
<!-- Generator: Adobe Illustrator 19.0.0, SVG Export Plug-In . SVG Version: 6.00 Build 0)  -->
<svg version="1.1" id="Layer_2" xmlns="http://www.w3.org/2000/svg" xmlns:xlink="http://www.w3.org/1999/xlink" x="0px" y="0px"
	 viewBox="0 0 504 504" style="enable-background:new 0 0 504 504;" xml:space="preserve">
<style type="text/css">
	.st0{opacity:0.35;}
	.st1{fill:#FF83FF;}
	.st2{opacity:0.55;fill:url(#XMLID_11_);}
	.st3{fill:url(#XMLID_12_);}
	.st4{fill:url(#XMLID_13_);}
	.st5{fill:url(#Flow2_1_);}
	.st6{opacity:0.4;fill:#FFFFFF;}
	.st7{opacity:0.33;}
	.st8{fill:url(#XMLID_15_);}
	.st9{opacity:0.37;}
	.st10{opacity:0.57;fill:url(#XMLID_16_);}
	.st11{fill:none;stroke:#FFFFFF;stroke-width:8;stroke-linecap:round;stroke-miterlimit:10;stroke-opacity:0.84;}
	.st12{filter:url(#Adobe_OpacityMaskFilter);}
	.st13{fill-opacity:0.87;stroke:#FFFFFF;stroke-miterlimit:10;}
	.st14{mask:url(#XMLID_20_);}
	.st15{fill:url(#XMLID_25_);}
</style>
<g id="XMLID_8_">
	<g id="XMLID_51_" class="st0">
		<path id="XMLID_52_" class="st1" d="M251.9,99.5c-84.2,0-152.4,68.2-152.4,152.4c0,84.2,68.2,152.4,152.4,152.4
			S404.3,336,404.3,251.9C404.3,167.7,336.1,99.5,251.9,99.5z M251.9,383.2c-72.4,0-131.3-58.9-131.3-131.3
			c0-72.4,58.9-131.3,131.3-131.3s131.3,58.9,131.3,131.3C383.3,324.3,324.4,383.2,251.9,383.2z"/>
	</g>
</g>
<g id="Base">
	<linearGradient id="XMLID_11_" gradientUnits="userSpaceOnUse" x1="358.2741" y1="359.6075" x2="142.7911" y2="144.1244">
		<stop  offset="0" style="stop-color:#FFCFAA;stop-opacity:0"/>
		<stop  offset="2.745521e-002" style="stop-color:#FFC9AC;stop-opacity:2.745521e-002"/>
		<stop  offset="0.261" style="stop-color:#FF98BE;stop-opacity:0.261"/>
		<stop  offset="0.4823" style="stop-color:#FF72CC;stop-opacity:0.4823"/>
		<stop  offset="0.6856" style="stop-color:#FF57D6;stop-opacity:0.6856"/>
		<stop  offset="0.8646" style="stop-color:#FF46DC;stop-opacity:0.8646"/>
		<stop  offset="1" style="stop-color:#FF40DE"/>
	</linearGradient>
	<circle id="XMLID_37_" class="st2" cx="250.5" cy="251.9" r="152.4"/>
</g>
<g id="XMLID_33_">
	<g id="XMLID_47_">
		<linearGradient id="XMLID_12_" gradientUnits="userSpaceOnUse" x1="179.3082" y1="293.6718" x2="179.3082" y2="233.7578">
			<stop  offset="0" style="stop-color:#003EB8"/>
			<stop  offset="0.1278" style="stop-color:#0046BC"/>
			<stop  offset="0.3226" style="stop-color:#005BC6"/>
			<stop  offset="0.56" style="stop-color:#007DD7"/>
			<stop  offset="0.8287" style="stop-color:#00ADEE"/>
			<stop  offset="1" style="stop-color:#00CFFF"/>
		</linearGradient>
		<path id="XMLID_44_" class="st3" d="M164.8,293.2c31.4-2.4,51.7-14.1,73.3-25.7c-1.3-0.5-2.6-1-3.8-1.6
			c-23.9-12.2-30-17.1-53.6-26.6c-18.1-7.4-38.4-6.9-59.3-1c-0.5,4.5-0.7,9-0.7,13.7c0,13.7,2.1,27,6.1,39.5
			C139,293.5,151.7,294.2,164.8,293.2z"/>
	</g>
	<g id="XMLID_1_">
		<linearGradient id="XMLID_13_" gradientUnits="userSpaceOnUse" x1="254.8113" y1="383.2033" x2="254.8113" y2="241.7736">
			<stop  offset="0" style="stop-color:#003EB8"/>
			<stop  offset="0.1278" style="stop-color:#0046BC"/>
			<stop  offset="0.3226" style="stop-color:#005BC6"/>
			<stop  offset="0.56" style="stop-color:#007DD7"/>
			<stop  offset="0.8287" style="stop-color:#00ADEE"/>
			<stop  offset="1" style="stop-color:#00CFFF"/>
		</linearGradient>
		<path id="XMLID_4_" class="st4" d="M383.2,247.8c-18.4-4.2-37.6-6.4-56.5-6c-5.2,0.1-10.3,0.4-15.4,0.9
			c-32.2,3.3-53.3,14-73.3,24.7c-21.6,11.6-42.7,23.3-74.2,25.7c-13.1,1-24.9-0.7-37.5-2.9c0,0,0.4,2,0.4,2c0.5,1.6,0.5,2.2,1.1,3.8
			c0,0.1,0,0.2,0,0.2c0.6,1.5,1.4,3.1,2,4.6c0.1,0.1,0.2,0.3,0.3,0.4c1.2,3,2.7,6,4.1,8.9c0.1,0.1,0.2,0.3,0.2,0.4
			c0.7,1.4,1.5,2.9,2.3,4.3c0,0.1,0.1,0.2,0.1,0.3c0.8,1.4,1.6,2.9,2.5,4.3c0.8,1.4,1.7,2.8,2.6,4.1c0.1,0.2,0.2,0.3,0.3,0.4
			c1.8,2.7,3.7,5.3,5.6,7.9c0.1,0.1,0.2,0.2,0.2,0.3c1,1.3,2,2.5,3,3.7c0.1,0.1,0.2,0.3,0.3,0.4c2.1,2.4,4.2,4.8,6.4,7.1
			c0.1,0.1,0.3,0.3,0.4,0.4c1.1,1.1,2.2,2.2,3.4,3.3c0.1,0.1,0.2,0.2,0.3,0.3c1.1,1.1,2.3,2.1,3.4,3.1c0.1,0.1,0.2,0.1,0.2,0.2
			c1.2,1,2.4,2,3.6,3c0.2,0.2,0.4,0.3,0.6,0.5c1.2,1,2.5,2,3.7,2.9c0,0,0,0,0,0c1.2,0.9,2.5,1.8,3.8,2.7c0.2,0.1,0.4,0.3,0.6,0.4
			c1.3,0.9,2.5,1.7,3.8,2.5c0.2,0.1,0.4,0.2,0.6,0.4c1.3,0.8,2.6,1.6,3.9,2.4c0,0,0.1,0,0.1,0.1c1.3,0.8,2.7,1.5,4.1,2.3
			c0.2,0.1,0.5,0.3,0.7,0.4c1.4,0.7,2.7,1.4,4.1,2.1c0.2,0.1,0.3,0.2,0.5,0.2c1.3,0.6,2.6,1.2,4,1.8c0.2,0.1,0.4,0.2,0.6,0.3
			c1.4,0.6,2.8,1.2,4.2,1.7c0.3,0.1,0.6,0.2,0.8,0.3c1.5,0.6,2.9,1.1,4.4,1.6c0,0,0.1,0,0.1,0c1.4,0.5,2.9,0.9,4.4,1.4
			c0.3,0.1,0.6,0.2,0.9,0.3c1.5,0.4,2.9,0.8,4.4,1.2c0.3,0.1,0.5,0.1,0.8,0.2c1.4,0.4,2.9,0.7,4.3,1c0.2,0,0.3,0.1,0.5,0.1
			c1.5,0.3,3.1,0.6,4.6,0.9c0.3,0.1,0.7,0.1,1,0.2c1.5,0.2,3.1,0.5,4.6,0.7c0.2,0,0.4,0,0.6,0.1c1.5,0.2,2.9,0.3,4.4,0.5
			c0.3,0,0.6,0.1,0.8,0.1c1.6,0.1,3.1,0.2,4.7,0.3c0.3,0,0.7,0,1,0c1.6,0.1,3.3,0.1,4.9,0.1c72.4,0,131.3-58.9,131.3-131.3
			C383.3,250.5,383.2,249.1,383.2,247.8z"/>
	</g>
</g>
<linearGradient id="Flow2_1_" gradientUnits="userSpaceOnUse" x1="268.2503" y1="383.2033" x2="268.2503" y2="294.7654">
	<stop  offset="0" style="stop-color:#FF00B8"/>
	<stop  offset="0.1084" style="stop-color:#FF05B9"/>
	<stop  offset="0.2323" style="stop-color:#FF13BD"/>
	<stop  offset="0.3636" style="stop-color:#FF29C4"/>
	<stop  offset="0.5003" style="stop-color:#FF4ACC"/>
	<stop  offset="0.6411" style="stop-color:#FF73D8"/>
	<stop  offset="0.7855" style="stop-color:#FFA5E6"/>
	<stop  offset="0.9299" style="stop-color:#FFE0F6"/>
	<stop  offset="1" style="stop-color:#FFFFFF"/>
</linearGradient>
<path id="Flow2" class="st5" d="M251.9,383.2c57,0,105.7-36.6,123.8-87.5c-13.7-1.3-27.4-1.3-40.9,0.1c-66.9,7-85.9,46-146.4,50.9
	c-9.4,0.8-18.7,0.6-27.7-0.4C184.4,369.1,216.6,383.2,251.9,383.2z"/>
<g id="Crescent">
	<path id="XMLID_38_" class="st6" d="M280.8,123.7c28.4,24.1,46.4,60,46.4,100.1c0,72.4-58.9,131.3-131.3,131.3
		c-9.9,0-19.6-1.1-28.8-3.2c22.9,19.5,52.6,31.2,84.9,31.2c72.4,0,131.3-58.9,131.3-131.3C383.3,189.4,339.4,136.9,280.8,123.7z"/>
</g>
<g id="LowYellow_2_" class="st7">
	<linearGradient id="XMLID_15_" gradientUnits="userSpaceOnUse" x1="344.7603" y1="344.692" x2="159.1088" y2="159.0405">
		<stop  offset="0" style="stop-color:#00FF45"/>
		<stop  offset="9.147614e-002" style="stop-color:#2AFF58;stop-opacity:0.9085"/>
		<stop  offset="0.2279" style="stop-color:#62FF71;stop-opacity:0.7721"/>
		<stop  offset="0.3651" style="stop-color:#92FF87;stop-opacity:0.6349"/>
		<stop  offset="0.5003" style="stop-color:#B9FF98;stop-opacity:0.4997"/>
		<stop  offset="0.6327" style="stop-color:#D8FFA6;stop-opacity:0.3673"/>
		<stop  offset="0.7618" style="stop-color:#EDFFB0;stop-opacity:0.2382"/>
		<stop  offset="0.886" style="stop-color:#FBFFB6;stop-opacity:0.114"/>
		<stop  offset="1" style="stop-color:#FFFFB8;stop-opacity:0"/>
	</linearGradient>
	<path id="XMLID_28_" class="st8" d="M251.9,383.2c-72.4,0-131.3-58.9-131.3-131.3c0-72.4,58.9-131.3,131.3-131.3
		s131.3,58.9,131.3,131.3C383.3,324.3,324.4,383.2,251.9,383.2z"/>
</g>
<g id="Shine" class="st9">
	<linearGradient id="XMLID_16_" gradientUnits="userSpaceOnUse" x1="358.2741" y1="359.6075" x2="142.7911" y2="144.1244">
		<stop  offset="0" style="stop-color:#FFFFFF"/>
		<stop  offset="1" style="stop-color:#FFFFFF;stop-opacity:0"/>
	</linearGradient>
	<circle id="XMLID_36_" class="st10" cx="250.5" cy="251.9" r="152.4"/>
</g>
<path id="Highlight2" class="st11" d="M168.8,190.6c6.5-8.9,14.5-16.6,23.5-23"/>
<path id="Highlight1" class="st11" d="M216.4,154.9c11.1-4.1,23.1-6.3,35.6-6.3c11.6,0,22.8,1.9,33.3,5.5"/>
<defs>
	<filter id="Adobe_OpacityMaskFilter" filterUnits="userSpaceOnUse" x="30.9" y="95" width="440.1" height="314.7">
		<feFlood  style="flood-color:white;flood-opacity:1" result="back"/>
		<feBlend  in="SourceGraphic" in2="back" mode="normal"/>
	</filter>
</defs>
<mask maskUnits="userSpaceOnUse" x="30.9" y="95" width="440.1" height="314.7" id="XMLID_20_">
	<g id="XMLID_3_" class="st12">
		<path id="XMLID_14_" class="st13" d="M375.7,163c-27.7-38.5-72.8-63.5-123.8-63.5c-84.2,0-152.4,68.2-152.4,152.4
			c0,31.7,9.7,61.1,26.2,85.4L375.7,163z"/>
	</g>
</mask>
<g id="XMLID_10_" class="st14">
	<g id="XMLID_59_">
		<linearGradient id="XMLID_25_" gradientUnits="userSpaceOnUse" x1="296.0106" y1="297.3439" x2="205.9894" y2="207.3227">
			<stop  offset="0" style="stop-color:#C06FB8"/>
			<stop  offset="0.1071" style="stop-color:#B96DB3"/>
			<stop  offset="0.2617" style="stop-color:#A666A4"/>
			<stop  offset="0.4451" style="stop-color:#875A8C"/>
			<stop  offset="0.6507" style="stop-color:#5B4B6B"/>
			<stop  offset="0.872" style="stop-color:#233741"/>
			<stop  offset="1" style="stop-color:#002A26"/>
		</linearGradient>
		<path id="XMLID_60_" class="st15" d="M469.6,99.3c-14-20-123.3,32.2-244,116.7S18.4,385.3,32.4,405.4c14,20,123.3-32.2,244-116.7
			S483.6,119.3,469.6,99.3z M270.3,279.9C160.6,356.7,63,406.7,52.3,391.5c-10.7-15.2,69.7-89.9,179.4-166.7
			C341.4,147.9,439,98,449.7,113.2S380,203.1,270.3,279.9z"/>
	</g>
</g>
</svg>
